         run       event       nTopo   nIdTracks       nJets      nMuons
      330470  1183722158           1           0           0           0
      330470  1183722342         394         413          18           0
      330470  1183727953         532         578          13           4
      330470  1183732647         467         464          12           1
      330470  1183733040         381         285           6           1
      330470  1183734651         361         361          14           4
      330470  1183735332         406         384           9           1
      330470  1183736475         741         675          15           2
      330470  1183738728           1           0           0           0
      330470  1183738949         368         429           9           1
      330470  1183742489         152         123           2           1
      330470  1183743040         285         310           5           0
      330470  1183746343         492         462          14           0
      330470  1183746710           6           0           0           0
      330470  1183751782         239         236           5           0
      330470  1183752624         347         339           8           3
      330470  1183753006         357         373          11           3
      330470  1183754806         470         406          15           0
      330470  1183769295         342         325           8           2
      330470  1183769939         348         351          11           3
      330470  1183773832         307         200           7           0
      330470  1183775209          57           0           0           0
      330470  1183787124         431         361          11           2
      330470  1183787946         321         313           5           1
      330470  1183795329         458         335          18           0
